2.6 Appendix: Regular Expressions | Text Mining using R
…
The stringr package is a simple wrapper around the more complete stringi package.

Example of finding rows in data frame of book text with “chapter [#]”. In regex(), “[]” means “any of”, “\d” is any number, and “v”, “x”, “l”, and “c” are just roman numerals. Here is the word-count per chapter.

austen <- janeaustenr::austen_books()
chapter_regex <- stringr::regex("^chapter [\\divxlc]", ignore_case = TRUE)
austen %>%
  filter(book == "Emma") %>%
  mutate(linenumber = row_number(),
         chapter = cumsum(str_detect(text, chapter_regex))) %>%
  ungroup() %>%
  unnest_tokens(output = "word", input = text, token = "words") %>%
  count(chapter)

## # A tibble: 56 x 2
##    chapter     n
##      <int> <int>
##  1       0     6
##  2       1  3326
##  3       2  1767
##  4       3  1878
##  5       4  3537
##  6       5  1992
##  7       6  2777
##  8       7  2427
##  9       8  4316
## 10       9  4780
## # ... with 46 more rows
…
